ENGSG,ENGPL,SPAFSG,SPAFPL,SPAMSG,SPAMPL,,,,,,<1000,<500,<300,<100,Diferencia
  [Jj]ournalist, [Jj]ournalists,   [Rr]eportera,  [Rr]eporteras,   [Rr]eportero,  [Rr]eporteros,106,860,0,0,34,no,no,no,no,"-78,05%"
     [Tt]eacher,    [Tt]eachers,   [Pp]rofesora,  [Pp]rofesoras,    [Pp]rofesor,  [Pp]rofesores,99,880,0,2,19,no,no,no,no,"-79,78%"
     [Tt]eacher,    [Tt]eachers,     [Mm]aestra,    [Mm]aestras,     [Mm]aestro,    [Mm]aestros,110,873,1,1,15,no,no,no,no,"-77,62%"
     [Tt]eacher,    [Tt]eachers, [Ii]nstructora,[Ii]nstructoras,  [Ii]nstructor,[Ii]nstructores,30,896,0,0,74,no,no,no,no,"-93,52%"
     [Tt]eacher,    [Tt]eachers,   [Ee]ducadora,  [Ee]ducadoras,    [Ee]ducador,  [Ee]ducadores,62,909,2,4,23,no,no,no,no,"-87,23%"
      [Mm]ember,     [Mm]embers,       [Ss]ocia,      [Ss]ocias,       [Ss]ocio,      [Ss]ocios,28,928,0,1,43,no,no,no,no,"-94,14%"
      [Mm]ember,     [Mm]embers,   [Ff]eligresa,   [Ff]eligrsas,   [Ff]eligrés,  [Ff]eligreses,8,194,0,0,2,yes,yes,yes,no,"-92,08%"
      [Mm]ember,     [Mm]embers, [Ss]uscriptora,[Ss]uscriptoras,  [Ss]uscriptor,[Ss]uscriptores,2,886,0,0,112,no,no,no,no,"-99,55%"
      [Mm]ember,     [Mm]embers,    [Aa]filiada,   [Aa]filiadas,    [Aa]filiado,   [Aa]filiados,343,586,0,3,68,no,no,no,no,"-26,16%"
   [Aa]ssistant,  [Aa]ssistants,     [Aa]djunta,    [Aa]djuntas,     [Aa]djunto,    [Aa]djuntos,104,829,0,0,67,no,no,no,no,"-77,71%"
  [Cc]onsultant, [Cc]onsultants,  [Cc]onsultora, [Cc]onsultoras,   [Cc]onsultor, [Cc]onsultores,59,925,0,0,16,no,no,no,no,"-88,01%"
  [Cc]onsultant, [Cc]onsultants,     [Aa]sesora,    [Aa]sesoras,      [Aa]sesor,    [Aa]sesores,59,916,0,0,25,no,no,no,no,"-87,90%"
  [Cc]onsultant, [Cc]onsultants,   [Cc]onsejera,  [Cc]onsejeras,   [Cc]onsejero,  [Cc]onsejeros,95,454,0,0,11,yes,no,no,no,"-65,39%"
   [Pp]rofessor,  [Pp]rofessors,   [Pp]rofesora,  [Pp]rofesoras,    [Pp]rofesor,  [Pp]rofesores,98,878,1,1,22,no,no,no,no,"-79,92%"
   [Pp]rofessor,  [Pp]rofessors,[Cc]atedrática,[Cc]atedráticas,[Cc]atedrático,[Cc]atedráticos,158,829,0,0,13,no,no,no,no,"-67,98%"
   [Pp]rofessor,  [Pp]rofessors,   [Dd]irectora,  [Dd]irectoras,    [Dd]irector,  [Dd]irectores,28,248,0,0,724,no,no,no,no,"-79,71%"
   [Vv]olunteer,  [Vv]olunteers,  [Vv]oluntaria, [Vv]oluntarias,  [Vv]oluntario, [Vv]oluntarios,54,917,0,0,29,no,no,no,no,"-88,88%"
  [Rr]esearcher, [Rr]esearchers,[Ii]nvestigadora,[Ii]nvestigadoras,[Ii]nvestigador,[Ii]nvestigadores,70,919,0,3,8,no,no,no,no,"-85,84%"
  [Rr]esearcher, [Rr]esearchers,   [Ee]studiosa,  [Ee]studiosas,   [Ee]studioso,  [Ee]studiosos,11,398,0,0,0,yes,yes,no,no,"-94,62%"
      [Ll]awyer,     [Ll]awyers,     [Aa]bogada,    [Aa]bogadas,     [Aa]bogado,    [Aa]bogados,9,571,0,0,420,no,no,no,no,"-96,90%"
      [Ll]awyer,     [Ll]awyers,     [Ll]etrada,    [Ll]etradas,     [Ll]etrado,    [Ll]etrados,490,468,0,0,42,no,no,no,no,"2,30%"
      [Ll]awyer,     [Ll]awyers,  [Ll]icenciada, [Ll]icenciadas,  [Ll]icenciado, [Ll]icenciados,65,213,0,0,11,yes,yes,yes,no,"-53,24%"
      [Ll]awyer,      [Ll]awyer,   [Dd]efensora,  [Dd]efensoras,    [Dd]efensor,  [Dd]efensores,76,854,0,4,66,no,no,no,no,"-83,66%"
       [Nn]urse,      [Nn]urses,   [Ee]nfermera,  [Ee]nfermeras,   [Ee]nfermero,  [Ee]nfermeros,626,360,2,3,9,no,no,no,no,"26,98%"
   [Aa]rchitect,  [Aa]rchitects,  [Aa]rquitecta, [Aa]rquitectas,  [Aa]rquitecto, [Aa]rquitectos,37,946,0,0,17,no,no,no,no,"-92,47%"
  [Tt]ranslator, [Tt]ranslators,  [Tt]raductora, [Tt]raductoras,   [Tt]raductor, [Tt]raductores,54,939,0,0,7,no,no,no,no,"-89,12%"
    [Ee]ngineer,   [Ee]ngineers,   [Ii]ngeniera,  [Ii]ngenieras,   [Ii]ngeniero,  [Ii]ngenieros,27,966,0,0,7,no,no,no,no,"-94,56%"
      [Dd]octor,     [Dd]octors,     [Dd]octora,    [Dd]octoras,      [Dd]octor,    [Dd]octores,6,844,1,0,149,no,no,no,no,"-98,59%"
      [Dd]octor,     [Dd]octors,     [Mm]édica,    [Mm]édicas,     [Mm]édico,    [Mm]édicos,11,946,0,0,43,no,no,no,no,"-97,70%"
[Pp]hotographer,[Pp]hotographers,  [Ff]otógrafa, [Ff]otógrafas,  [Ff]otógrafo, [Ff]otógrafos,69,924,1,0,6,no,no,no,no,"-86,10%"
      [Ee]ditor,     [Ee]ditors,     [Ee]ditora,    [Ee]ditoras,      [Ee]ditor,    [Ee]ditores,6,760,0,0,234,no,no,no,no,"-98,43%"
      [Ee]ditor,     [Ee]ditors,   [Dd]irectora,  [Dd]irectoras,    [Dd]irector,  [Dd]irectores,61,764,0,0,175,no,no,no,no,"-85,21%"
      [Ee]ditor,     [Ee]ditors,   [Mm]ontadora,  [Mm]ontadoras,    [Mm]ontador,  [Mm]ontadores,46,98,0,0,2,yes,yes,yes,no,"-36,11%"
      [Ee]ditor,     [Ee]ditors,  [Cc]orrectora, [Cc]orrectoras,   [Cc]orrector, [Cc]orrectores,20,163,0,0,4,yes,yes,yes,no,"-78,14%"
    [Ll]ecturer,   [Ll]ecturers,   [Pp]rofesora,  [Pp]rofesoras,    [Pp]rofesor,  [Pp]rofesores,159,780,1,4,56,no,no,no,no,"-66,13%"
    [Ll]ecturer,   [Ll]ecturers,  [Aa]cadémica, [Aa]cadémicas,  [Aa]cadémico, [Aa]cadémicos,139,190,0,0,15,yes,yes,no,no,"-15,50%"
    [Ll]ecturer,   [Ll]ecturers,     [Oo]radora,    [Oo]radoras,      [Oo]rador,    [Oo]radores,9,106,0,0,5,yes,yes,yes,no,"-84,35%"
    [Ll]ecturer,   [Ll]ecturers,     [Mm]aestra,    [Mm]aestras,     [Mm]aestro,    [Mm]aestros,24,175,0,2,11,yes,yes,yes,no,"-75,88%"
   [Ss]ecretary, [Ss]ecretaries,  [Ss]ecretaria, [Ss]ecretarias,  [Ss]ecretario, [Ss]ecretarios,28,966,0,0,6,no,no,no,no,"-94,37%"
   [Ss]ecretary, [Ss]ecretaries,    [Mm]inistra,   [Mm]inistras,    [Mm]inistro,   [Mm]inistros,52,831,0,0,117,no,no,no,no,"-88,22%"
   [Ss]ecretary, [Ss]ecretaries,  [Pp]residenta, [Pp]residentas,  [Pp]residente, [Pp]residentes,40,864,0,0,96,no,no,no,no,"-91,15%"
       [Jj]udge,      [Jj]udges,       [Jj]ueza,      [Jj]uezas,        [Jj]uez,      [Jj]ueces,23,957,2,1,17,no,no,no,no,"-95,31%"
       [Jj]udge,      [Jj]udges,  [Mm]agistrada, [Mm]agistradas,  [Mm]agistrado, [Mm]agistrados,25,949,0,0,26,no,no,no,no,"-94,87%"
    [Rr]eporter,   [Rr]eporters,   [Rr]eportera,  [Rr]eporteras,   [Rr]eportero,  [Rr]eporteros,101,895,0,0,4,no,no,no,no,"-79,72%"
     [Pp]ainter,    [Pp]ainters,     [Pp]intora,    [Pp]intoras,      [Pp]intor,    [Pp]intores,52,936,0,2,10,no,no,no,no,"-89,47%"
    [Dd]irector,   [Dd]irectors,   [Dd]irectora,  [Dd]irectoras,    [Dd]irector,  [Dd]irectores,12,568,0,0,420,no,no,no,no,"-95,86%"
    [Dd]irector,   [Dd]irectors,   [Cc]onsejera,  [Cc]onsejeras,   [Cc]onsejero,  [Cc]onsejeros,71,901,0,0,28,no,no,no,no,"-85,39%"
   [Aa]ssociate,  [Aa]ssociates,       [Ss]ocia,      [Ss]ocias,       [Ss]ocio,      [Ss]ocios,46,929,0,1,24,no,no,no,no,"-90,56%"
   [Aa]ssociate,  [Aa]ssociates,    [Aa]sociada,   [Aa]sociadas,    [Aa]sociado,   [Aa]sociados,99,893,0,1,7,no,no,no,no,"-80,04%"
   [Aa]ssociate,  [Aa]ssociates,     [Aa]djunta,    [Aa]djuntas,     [Aa]djunto,    [Aa]djuntos,112,849,0,0,39,no,no,no,no,"-76,69%"
    [Dd]esigner,   [Dd]esigners, [Dd]iseñadora,[Dd]iseñadoras,  [Dd]iseñador,[Dd]iseñadores,73,920,0,1,6,no,no,no,no,"-85,30%"
    [Dd]esigner,   [Dd]esigners,     [Mm]odista,    [Mm]odistas,     [Mm]odisto,    [Mm]odistos,53,97,0,0,1,yes,yes,yes,no,"-29,33%"
   [Cc]arpenter,  [Cc]arpenters,  [Cc]arpintera, [Cc]arpinteras,  [Cc]arpintero, [Cc]arpinteros,18,975,0,0,7,no,no,no,no,"-96,37%"
  [Aa]ccountant, [Aa]ccountants,   [Cc]ontadora,  [Cc]ontadoras,    [Cc]ontador,  [Cc]ontadores,49,940,0,0,11,no,no,no,no,"-90,09%"
  [Aa]ccountant, [Aa]ccountants,    [Aa]uditora,   [Aa]uditoras,     [Aa]uditor,   [Aa]uditores,5,545,0,0,144,yes,no,no,no,"-98,18%"
      [Ww]riter,     [Ww]riters,   [Ee]scritora,  [Ee]scritoras,    [Ee]scritor,  [Ee]scritores,93,900,0,0,7,no,no,no,no,"-81,27%"
      [Ww]riter,     [Ww]riters,      [Aa]utora,     [Aa]utoras,       [Aa]utor,     [Aa]utores,74,873,1,0,52,no,no,no,no,"-84,37%"
      [Ww]riter,     [Ww]riters, [Cc]ompositora,[Cc]ompositoras,  [Cc]ompositor,[Cc]ompositores,153,826,0,0,21,no,no,no,no,"-68,74%"
      [Dd]river,     [Dd]rivers,  [Cc]onductora, [Cc]onductoras,   [Cc]onductor, [Cc]onductores,7,983,0,0,10,no,no,no,no,"-98,59%"
      [Dd]river,     [Dd]rivers,      [Pp]ilota,     [Pp]ilotas,      [Pp]iloto,     [Pp]ilotos,0,969,0,0,31,no,no,no,no,"-100,00%"
      [Ii]ntern,     [Ii]nterns,     [Ii]nterna,    [Ii]nternas,     [Ii]nterno,    [Ii]nternos,256,734,2,1,7,no,no,no,no,"-48,28%"
      [Ii]ntern,     [Ii]nterns,     [Bb]ecaria,    [Bb]ecarias,     [Bb]ecario,    [Bb]ecarios,170,656,1,0,6,yes,no,no,no,"-58,84%"
     [Aa]dvisor,    [Aa]dvisors,     [Aa]sesora,    [Aa]sesoras,      [Aa]sesor,    [Aa]sesores,93,886,0,0,21,no,no,no,no,"-81,00%"
     [Aa]dvisor,    [Aa]dvisors,   [Cc]onsejera,  [Cc]onsejeras,   [Cc]onsejero,  [Cc]onsejeros,96,895,0,0,9,no,no,no,no,"-80,63%"
     [Aa]dvisor,    [Aa]dvisors,      [Tt]utora,     [Tt]utoras,       [Tt]utor,     [Tt]utores,14,134,0,0,22,yes,yes,yes,no,"-81,08%"
     [Aa]dvisor,    [Aa]dvisors, [Ii]nstructora,[Ii]nstructoras,  [Ii]nstructor,[Ii]nstructores,3,30,0,0,4,yes,yes,yes,yes,"-81,82%"
     [Aa]dvisor,    [Aa]dvisors,  [Cc]onsultora, [Cc]onsultoras,   [Cc]onsultor, [Cc]onsultores,64,479,0,0,26,yes,no,no,no,"-76,43%"
  [Ii]nstructor, [Ii]nstructors,   [Pp]rofesora,  [Pp]rofesoras,    [Pp]rofesor,  [Pp]rofesores,118,802,0,2,78,no,no,no,no,"-74,35%"
  [Ii]nstructor, [Ii]nstructors,    [Mm]onitora,   [Mm]onitoras,     [Mm]onitor,   [Mm]onitores,33,482,0,0,23,yes,no,no,no,"-87,18%"
  [Ii]nstructor, [Ii]nstructors, [Ii]nstructora,[Ii]nstructoras,  [Ii]nstructor,[Ii]nstructores,6,833,0,0,161,no,no,no,no,"-98,57%"
    [Mm]echanic,   [Mm]echanics,   [Mm]ecánica,  [Mm]ecánicas,   [Mm]ecánico,  [Mm]ecánicos,564,421,0,0,15,no,no,no,no,"14,52%"
       [Cc]lerk,      [Cc]lerks,[Aa]dministrativa,[Aa]dministrativas,[Aa]dministrativo,[Aa]dministrativos,93,588,0,0,154,yes,no,no,no,"-72,69%"
       [Cc]lerk,      [Cc]lerks, [Dd]ependienta,[Dd]ependientas, [Dd]ependiente,[Dd]ependientes,44,370,0,0,9,yes,yes,no,no,"-78,74%"
       [Cc]lerk,      [Cc]lerks,    [Ee]mpleada,   [Ee]mpleadas,    [Ee]mpleado,   [Ee]mpleados,46,932,0,0,22,no,no,no,no,"-90,59%"
       [Cc]lerk,      [Cc]lerks,   [Vv]endedora,  [Vv]endedoras,    [Vv]endedor,  [Vv]endedores,207,277,0,0,2,yes,yes,no,no,"-14,46%"
       [Cc]lerk,      [Cc]lerks, [Tt]rabajadora, [Tt]abajadoras,  [Tt]rabajador,[Tt]rabajadores,3,129,0,0,30,yes,yes,yes,no,"-95,45%"
       [Cc]lerk,      [Cc]lerks, [Ff]uncionaria,[Ff]uncionarias, [Ff]uncionario,[Ff]uncionarios,10,725,0,0,125,yes,no,no,no,"-97,28%"
       [Cc]lerk,      [Cc]lerks,[Rr]egistradora,[Rr]egistradoras, [Rr]egistrador,[Rr]egistradores,8,31,0,0,1,yes,yes,yes,yes,"-58,97%"
       [Cc]lerk,      [Cc]lerks,  [Ss]ecretaria, [Ss]ecretarias,  [Ss]ecretario, [Ss]ecretarios,75,895,0,0,30,no,no,no,no,"-84,54%"
    [Pp]roducer,   [Pp]roducers,  [Pp]roductora, [Pp]roductoras,   [Pp]roductor, [Pp]roductores,31,949,1,2,17,no,no,no,no,"-93,67%"
    [Pp]roducer,   [Pp]roducers,   [Dd]irectora,  [Dd]irectoras,    [Dd]irector,  [Dd]irectores,21,354,0,0,625,no,no,no,no,"-88,80%"
    [Pp]roducer,   [Pp]roducers, [Rr]ealizadora,[Rr]ealizadoras,  [Rr]ealizador,[Rr]ealizadores,34,383,0,1,10,yes,yes,no,no,"-83,69%"
    [Pp]roducer,   [Pp]roducers,    [Cc]readora,   [Cc]readoras,     [Cc]reador,   [Cc]readores,25,386,0,0,6,yes,yes,no,no,"-87,83%"
    [Pp]roducer,   [Pp]roducers,  [Pp]roveedora, [Pp]roveedoras,   [Pp]roveedor, [Pp]roveedores,30,932,0,0,38,no,no,no,no,"-93,76%"
    [Ee]mployee,   [Ee]mployees,    [Ee]mpleada,   [Ee]mpleadas,    [Ee]mpleado,   [Ee]mpleados,46,933,0,1,20,no,no,no,no,"-90,60%"
    [Ee]mployee,   [Ee]mployees, [Tt]rabajadora,[Tt]rabajadoras,  [Tt]rabajador,[Tt]rabajadores,25,903,1,4,67,no,no,no,no,"-94,61%"
    [Ee]mployee,   [Ee]mployees, [Ff]uncionaria,[Ff]uncionarias, [Ff]uncionario,[Ff]uncionarios,30,899,0,1,70,no,no,no,no,"-93,54%"
  [Mm]issionary,[Mm]issionaries,  [Mm]isionaria, [Mm]isionarias,  [Mm]isionario, [Mm]isionarios,102,639,0,0,3,yes,no,no,no,"-72,47%"
  [Mm]issionary,[Mm]issionaries,   [Mm]isionera,  [Mm]isioneras,   [Mm]isionero,  [Mm]isioneros,245,734,0,0,21,no,no,no,no,"-49,95%"
[Cc]ook,       [Cc]ooks,   [Cc]ocinera,   [Cc]ocineras,    [Cc]ocinero,   [Cc]ocineros,208,771,1,2,18,no,no,no,no,"-57,51%"
  [Aa]pprentice, [Aa]pprentices,   [Aa]prendiza,  [Aa]prendizas,    [Aa]prendiz,  [Aa]prendices,7,974,0,0,19,no,no,no,no,"-98,57%"
  [Aa]pprentice, [Aa]pprentices,    [Ee]mpleada,   [Ee]mpleadas,    [Ee]mpleado,   [Ee]mpleados,21,181,0,0,26,yes,yes,yes,no,"-79,21%"
 [Ii]llustrator,[Ii]llustrators, [Ii]lustradora,[Ii]lustradoras,  [Ii]lustrador,[Ii]lustradores,155,838,0,0,7,no,no,no,no,"-68,78%"
      [Ee]xpert,     [Ee]xperts,     [Ee]xperta,    [Ee]xpertas,     [Ee]xperto,    [Ee]xpertos,34,955,0,0,11,no,no,no,no,"-93,12%"
   [Pp]hysician,  [Pp]hysicians,     [Mm]édica,    [Mm]édicas,     [Mm]édico,    [Mm]édicos,24,826,0,0,150,no,no,no,no,"-94,35%"
   [Pp]hysician,  [Pp]hysicians,     [Dd]octora,    [Dd]octoras,      [Dd]octor,    [Dd]octores,85,751,0,0,164,no,no,no,no,"-79,67%"
   [Pp]hysician, [Pp]hyisicians, [Ff]acultativa,[Ff]acultativas, [Ff]acultativo,[Ff]acultativos,12,223,0,0,1,yes,yes,yes,no,"-89,79%"
     [Cc]leaner,    [Cc]leaners,  [Ll]impiadora, [Ll]impiadoras,   [Ll]impiador, [Ll]impiadores,73,890,1,0,36,no,no,no,no,"-84,84%"
      [Dd]ancer,     [Dd]ancers,   [Bb]ailarina,  [Bb]ailarinas,   [Bb]ailarín,  [Bb]ailarines,371,617,1,4,7,no,no,no,no,"-24,90%"
      [Dd]ancer,     [Dd]ancers,    [Bb]ailaora,   [Bb]ailaoras,     [Bb]ailaor,   [Bb]ailaores,392,276,0,1,64,yes,no,no,no,"17,37%"
     [Mm]anager,    [Mm]anagers,   [Dd]irectora,  [Dd]irectoras,    [Dd]irector,  [Dd]irectores,61,839,0,0,100,no,no,no,no,"-86,44%"
     [Mm]anager,    [Mm]anagers,        [Jj]efa,       [Jj]efas,        [Jj]efe,       [Jj]efes,45,916,0,0,39,no,no,no,no,"-90,63%"
     [Mm]anager,    [Mm]anagers,     [Gg]erenta,    [Gg]erentas,     [Gg]erente,    [Gg]erentes,5,987,0,0,8,no,no,no,no,"-98,99%"
     [Mm]anager,    [Mm]anagers,[Aa]dministradora,[Aa]dministradoras,[Aa]dministrador,[Aa]dministradores,39,939,0,0,22,no,no,no,no,"-92,02%"
        [Cc]hef,       [Cc]hefs,    [Cc]ocinera,   [Cc]ocineras,   [Cc]ocineros,    [Cc]ocinero,47,931,2,0,20,no,no,no,no,"-90,39%"
     [Ss]tudent,    [Ss]tudents,      [Aa]lumna,     [Aa]lumnas,      [Aa]lumno,     [Aa]lumnos,34,934,3,6,23,no,no,no,no,"-92,98%"
   [Ee]xecutive,  [Ee]xecutives,   [Ee]jectuiva,  [Ee]jecutivas,   [Ee]jecutivo,  [Ee]jecutivos,68,924,0,0,8,no,no,no,no,"-86,29%"
   [Ee]xecutive,  [Ee]xecutives,[Aa]dministrativa,[Aa]dministrativas,[Aa]dministrativo,[Aa]dministrativos,308,611,0,0,81,no,no,no,no,"-32,97%"
   [Ee]xecutive,  [Ee]xecutives,   [Dd]irectiva,  [Dd]irectivas,   [Dd]irectivo,  [Dd]irectivos,352,595,0,1,52,no,no,no,no,"-25,66%"
   [Ee]xecutive,   [Ee]ecutives,   [Dd]irectora,  [Dd]irectoras,    [Dd]irector,  [Dd]irectores,9,102,0,0,889,no,no,no,no,"-83,78%"
    [Aa]ttorney,   [Aa]ttorneys,     [Aa]bogada,    [Aa]bogadas,     [Aa]bogado,    [Aa]bogados,5,714,0,0,281,no,no,no,no,"-98,61%"
    [Aa]ttorney,   [Aa]ttorneys, [Pp]rocuradora,[Pp]rocuradoras,  [Pp]rocurador,[Pp]rocuradores,4,995,0,0,1,no,no,no,no,"-99,20%"
    [Aa]ttorney,   [Aa]ttorneys,     [Ll]etrada,    [Ll]etradas,     [Ll]etrado,    [Ll]etrados,277,346,0,0,31,yes,no,no,no,"-11,08%"
    [Aa]ttorney,   [Aa]ttorneys,  [Ll]icenciada, [Ll]icenciadas,  [Ll]icenciado, [Ll]icenciados,31,144,0,0,5,yes,yes,yes,no,"-64,57%"
    [Aa]ttorney,   [Aa]ttorneys,   [Dd]efensora,  [Dd]efensoras,    [Dd]efensor,  [Dd]efensores,54,884,4,10,48,no,no,no,no,"-88,49%"
     [Tt]rainer,    [Tt]rainers, [Ee]ntrenadora,[Ee]ntrenadoras,  [Ee]ntrenador,[Ee]ntrenadores,46,948,0,0,6,no,no,no,no,"-90,74%"
     [Tt]rainer,    [Tt]rainers,[Aa]diestradora,[Aa]diestradoras, [Aa]diestrador,[Aa]diestradores,8,201,0,0,1,yes,yes,yes,no,"-92,34%"
     [Tt]rainer,    [Tt]rainers, [Pp]reparadora,[Pp]reparadoras,  [Pp]reparador,[Pp]reparadores,11,193,0,0,2,yes,yes,yes,no,"-89,22%"
     [Tt]rainer,    [Tt]rainers, [Ii]nstructora,[Ii]nstructoras,  [Ii]nstructor,[Ii]nstructores,19,954,0,0,27,no,no,no,no,"-96,09%"
     [Tt]rainer,    [Tt]rainers,[Aa]maestradora,[Aa]maestradoras, [Aa]maestrador,[Aa]maestradores,1,229,0,0,1,yes,yes,yes,no,"-99,13%"
     [Tt]rainer,    [Tt]rainers,[Cc]apacitadora,[Cc]apacitadoras, [Cc]apacitador,[Cc]apacitadores,72,916,0,7,5,no,no,no,no,"-85,43%"
     [Tt]rainer,    [Tt]rainers,   [Ff]ormadora,  [Ff]ormadoras,    [Ff]ormador,  [Ff]ormadores,44,937,0,3,16,no,no,no,no,"-91,03%"
  [Pp]rogrammer, [Pp]rogrammers,[Pp]rogramadora,[Pp]rogramadoras, [Pp]rogramador,[Pp]rogramadores,20,975,0,0,5,no,no,no,no,"-95,98%"
    [Gg]ardener,   [Gg]ardeners,   [Jj]ardinera,  [Jj]ardineras,   [Jj]ardinero,  [Jj]ardineros,22,974,0,0,4,no,no,no,no,"-95,58%"
    [Gg]ardener,   [Gg]ardeners,   [Cc]ampesina,  [Cc]ampesinas,   [Cc]ampesino,  [Cc]ampesinos,1,16,0,1,1,yes,yes,yes,yes,"-88,24%"
    [Gg]ardener,   [Gg]ardeners,   [Hh]ortelana,  [Hh]ortelanas,   [Hh]ortelano,  [Hh]ortelanos,6,144,0,0,1,yes,yes,yes,no,"-92,00%"
   [Bb]artender,  [Bb]artenders,    [Cc]amarera,   [Cc]amareras,    [Cc]amarero,   [Cc]amareros,114,868,1,0,17,no,no,no,no,"-76,78%"
   [Bb]artender,  [Bb]artenders,    [Mm]esonera,   [Mm]esoneras,    [Mm]esonero,   [Mm]esoneros,0,2,0,0,0,yes,yes,yes,yes,"-100,00%"
   [Bb]artender,  [Bb]artenders,   [Tt]abernera,   [Tt]abernera,   [Tt]abernero,  [Tt]aberneros,0,34,0,0,0,yes,yes,yes,yes,"-100,00%"
   [Bb]artender,  [Bb]artenders,      [Mm]esera,     [Mm]eseras,      [Mm]esero,     [Mm]eseros,17,28,0,0,2,yes,yes,yes,yes,"-24,44%"
   [Bb]artender,  [Bb]artenders,   [Cc]antinera,  [Cc]antineras,   [Cc]antinero,  [Cc]antineros,93,620,0,1,2,yes,no,no,no,"-73,91%"
     [Cc]urator,    [Cc]urators,[Cc]onservadora,[Cc]onservadoras, [Cc]onservador,[Cc]onservadores,159,705,0,0,8,yes,no,no,no,"-63,19%"
     [Cc]urator,    [Cc]urators,    [Cc]uradora,   [Cc]uradoras,     [Cc]urador,   [Cc]uradores,234,753,0,3,10,no,no,no,no,"-52,58%"
     [Cc]urator,    [Cc]urators,   [Dd]irectora,  [Dd]irectoras,    [Dd]irector,  [Dd]irectores,27,264,1,0,639,yes,no,no,no,"-81,44%"
     [Cc]urator,    [Cc]urators,   [Cc]omisaria,  [Cc]omisarias,   [Cc]omisario,  [Cc]omisarios,274,717,0,1,8,no,no,no,no,"-44,70%"
     [Cc]urator,    [Cc]urators,[Aa]dministradora,[Aa]dministradoras,[Aa]dministrador,[Aa]dministradores,3,64,0,0,4,yes,yes,yes,yes,"-91,04%"
     [Cc]urator,    [Cc]urators,   [Cc]omisaria,  [Cc]omisarias,   [Cc]omisario,  [Cc]omisarios,274,717,0,1,8,no,no,no,no,"-44,70%"
     [Cc]urator,    [Cc]urators, [Ss]upervisora,[Ss]upervisoras,  [Ss]upervisor,[Ss]upervisores,7,22,0,0,4,yes,yes,yes,yes,"-51,72%"
     [Cc]urator,    [Cc]urators,[Oo]rganizadora,[Oo]rganizadoras, [Oo]rganizador,[Oo]rganizadores,7,75,0,0,0,yes,yes,yes,yes,"-82,93%"
     [Cc]urator,    [Cc]urators,     [Mm]entora,    [Mm]entoras,      [Mm]entor,    [Mm]entores,1,969,0,0,2,yes,no,no,no,"-99,79%"
     [Cc]urator,    [Cc]urators,     [Ee]xperta,    [Ee]xpertas,     [Ee]xperto,    [Ee]xpertos,21,152,0,0,2,yes,yes,yes,no,"-75,72%"
     [Ss]ervant,    [Ss]ervants,      [Cc]riada,     [Cc]riadas,      [Cc]riado,     [Cc]riados,151,828,0,3,18,no,no,no,no,"-69,15%"
     [Ss]ervant,    [Ss]ervants,   [Ss]irvienta,  [Ss]irvientas,   [Ss]irviente,  [Ss]irvientes,105,890,0,0,5,no,no,no,no,"-78,89%"
     [Ss]ervant,    [Ss]ervants,      [Ss]ierva,     [Ss]iervas,      [Ss]iervo,     [Ss]iervos,40,929,0,6,25,no,no,no,no,"-91,74%"
     [Ss]ervant,    [Ss]ervants,   [Ss]ervidora,  [Ss]ervidoras,    [Ss]ervidor,  [Ss]ervidores,25,953,6,3,13,no,no,no,no,"-94,89%"
     [Ss]ervant,    [Ss]ervants,     [Mm]uacama,     [Mm]ucamas,      [Mm]ucamo,     [Mm]ucamos,12,3,0,0,0,yes,yes,yes,yes,"60,00%"
     [Ss]ervant,    [Ss]ervants,   [Aa]sistenta,  [Aa]sistentas,   [Aa]sistente,  [Aa]sistentes,16,275,0,0,2,yes,yes,yes,no,"-89,00%"
     [Ss]ervant,    [Ss]ervants,   [Mm]ayordoma,  [Mm]ayordomas,   [Mm]ayordomo,  [Mm]ayordomos,1,203,0,0,6,yes,yes,yes,no,"-99,02%"
     [Ss]ervant,    [Ss]ervants, [Tt]rabajadora,[Tt]rabajadoras,  [Tt]rabajador, [Tt]abajadores,146,147,0,0,33,yes,yes,no,no,"-0,34%"
     [Ss]ervant,    [Ss]ervants,    [Mm]uchacha,   [Mm]uchachas,    [Mm]uchacho,   [Mm]uchachos,97,232,0,1,20,yes,yes,no,no,"-41,03%"
     [Ss]ervant,    [Ss]ervants,      [Cc]asera,     [Cc]aseras,      [Cc]asero,     [Cc]aseros,0,4,0,0,0,yes,yes,yes,yes,"-100,00%"
     [Ss]ervant,    [Ss]ervants, [Ff]uncionaria,[Ff]uncionarias, [Ff]uncionario,[Ff]uncionarios,23,885,0,4,88,no,no,no,no,"-94,93%"
   [Mm]ercenary,  [Mm]ercenarys,  [Mm]ercenaria, [Mm]ercenarias,  [Mm]ercenario, [Mm]ercenarios,240,599,0,0,161,no,no,no,no,"-42,79%"
   [Mm]ercenary,  [Mm]ercenarys,  [Aa]salariada, [Aa]salariadas,  [Aa]salariado, [Aa]salariados,0,6,0,0,0,yes,yes,yes,yes,"-100,00%"
       [Gg]uard,      [Gg]uards,       [Aa]lera,      [Aa]leras,       [Aa]lero,      [Aa]leros,0,85,0,0,0,yes,yes,yes,yes,"-100,00%"
       [Gg]uard,      [Gg]uards,   [Cc]arcelera,   [Cc]rceleras,   [Cc]arcelero,  [Cc]arceleros,7,247,0,0,3,yes,yes,yes,no,"-94,49%"
     [Cc]ashier,    [Cc]ashiers,      [Cc]ajera,     [Cc]ajeras,      [Cc]ajero,     [Cc]ajeros,173,820,0,3,4,no,no,no,no,"-65,16%"
       [Aa]gent,      [Aa]gents,[Ii]ntermediaria,[Ii]ntermediarias,[Ii]ntermediario,[Ii]ntermediarios,33,888,0,0,41,yes,no,no,no,"-92,83%"
       [Aa]gent,      [Aa]gents,   [Aa]poderada,  [Aa]poderadas,   [Aa]poderado,  [Aa]poderados,5,249,0,0,1,yes,yes,yes,no,"-96,06%"
       [Aa]gent,      [Aa]gents,     [Gg]estora,    [Gg]estoras,      [Gg]estor,    [Gg]estores,37,255,0,0,11,yes,yes,no,no,"-74,66%"
       [Aa]gent,      [Aa]gents,    [Dd]elegada,   [Dd]elegadas,    [Dd]elegado,   [Dd]elegados,25,240,0,0,8,yes,yes,yes,no,"-81,13%"
       [Aa]gent,      [Aa]gents,     [Mm]iembra,    [Mm]iembras,     [Mm]iembro,    [Mm]iembros,0,860,1,0,139,no,no,no,no,"-100,00%"
       [Aa]gent,      [Aa]gents, [Tt]rabajadora,[Tt]rabajadoras,  [Tt]rabajador,[Tt]rabajadores,43,832,0,6,119,no,no,no,no,"-90,17%"
       [Aa]gent,      [Aa]gents,   [Oo]peradora,  [Oo]peradoras,    [Oo]perador,  [Oo]peradores,13,897,0,0,66,yes,no,no,no,"-97,14%"
   [Aa]lternate,  [Aa]lternates,   [Ss]ustituta,  [Ss]ustitutas,   [Ss]ustituto,  [Ss]ustitutos,11,182,0,0,1,yes,yes,yes,no,"-88,60%"
     [Aa]dviser,    [Aa]dvisers,     [Aa]sesora,     [Aa]esoras,      [Aa]sesor,    [Aa]sesores,142,836,0,1,21,no,no,no,no,"-70,96%"
     [Aa]dviser,    [Aa]dvisers,   [Cc]onsejera,  [Cc]onsejeras,   [Cc]onsejero,  [Cc]onsejeros,97,888,0,0,15,no,no,no,no,"-80,30%"
     [Aa]dviser,    [Aa]dvisers, [Oo]rientadora,[Oo]rientadoras,  [Oo]rientador,[Oo]rientadores,0,49,0,0,4,yes,yes,yes,yes,"-100,00%"
     [Aa]dviser,    [Aa]dvisers,  [Cc]onsultora, [Cc]onsultoras,   [Cc]onsultor, [Cc]onsultores,75,771,0,0,27,yes,no,no,no,"-82,27%"
     [Aa]dviser,    [Aa]dvisers,      [Tt]utora,     [Tt]utoras,       [Tt]utor,     [Tt]utores,4,114,0,0,5,yes,yes,yes,no,"-93,22%"
     [Aa]dviser,    [Aa]dvisers, [In]nstructora,[Ii]nstructoras,  [Ii]nstructor,[Ii]nstructores,0,197,0,0,9,yes,yes,yes,no,"-100,00%"
  [Ll]abou\?rer, [Ll]abou\?rers,       [Pp]eona,      [Pp]eonas,       [Pp]eón,      [Pp]eones,2,388,0,0,3,yes,yes,no,no,"-98,97%"
  [Ll]abou\?rer, [Ll]abou\?rers, [Tt]rabajadora,[Tt]rabajadoras,  [Tt]rabajador,[Tt]rabajadores,26,877,1,5,91,no,no,no,no,"-94,24%"
  [Ll]abou\?rer, [Ll]abou\?rers,   [Jj]ornalera,  [Jj]ornaleras,   [Jj]ornalero,  [Jj]ornaleros,76,894,0,4,26,no,no,no,no,"-84,33%"
  [Ll]abou\?rer, [Ll]abou\?rers,      [Oo]brera,     [Oo]breras,      [Oo]brero,     [Oo]breros,24,933,0,0,43,no,no,no,no,"-94,98%"
  [Ll]abou\?rer, [Ll]abou\?rers,   [Cc]ampesina,  [Cc]ampesinas,   [Cc]ampesino,  [Cc]ampesinos,30,427,0,2,76,yes,no,no,no,"-86,87%"
       [Tt]utor,      [Tt]utors,   [Pp]rofesora,  [Pp]rofesoras,    [Pp]rofesor,  [Pp]rofesores,73,868,0,1,58,no,no,no,no,"-84,48%"
       [Tt]utor,      [Tt]utors,      [Tt]utora,     [Tt]utoras,       [Tt]utor,     [Tt]utores,6,840,1,4,149,no,no,no,no,"-98,58%"
       [Tt]utor,      [Tt]utors,     [Mm]entora,    [Mm]entoras,      [Mm]entor,    [Mm]entores,1,194,0,0,23,yes,yes,yes,no,"-98,97%"
       [Tt]utor,      [Tt]utors,  [Pp]receptora,  [Pp]eceptoras,   [Pp]receptor, [Pp]receptores,2,119,0,0,1,yes,yes,yes,no,"-96,69%"
       [Tt]utor,      [Tt]utors,     [Mm]aestra,    [Mm]aestras,     [Mm]aestro,    [Mm]aestros,67,311,0,0,28,yes,yes,no,no,"-64,55%"
    [Oo]fficial,   [Oo]fficials, [Ff]uncionaria,[Ff]uncionarias, [Ff]uncionario,[Ff]uncionarios,8,957,1,2,32,no,no,no,no,"-98,34%"
    [Oo]fficial,   [Oo]fficials,   [Pp]ersonera,  [Pp]ersoneras,   [Pp]ersonero,  [Pp]ersoneros,2,114,0,0,11,yes,yes,yes,no,"-96,55%"
 [Hh]ousekeeper,[Hh]ousekeepers,   [Ss]irvienta,  [Ss]irvientas,   [Ss]irviente,  [Ss]irvientes,60,13,0,0,1,yes,yes,yes,yes,"64,38%"
 [Hh]ousekeeper,[Hh]ousekeepers,      [Cc]riada,     [Cc]riadas,      [Cc]riado,     [Cc]riados,116,7,0,0,2,yes,yes,yes,no,"88,62%"
 [Hh]ousekeeper,[Hh]ousekeepers,  [Ll]impiadora, [Ll]impiadoras,   [Ll]impiador, [Ll]impiadores,36,8,0,0,0,yes,yes,yes,yes,"63,64%"
 [Hh]ousekeeper,[Hh]ousekeepers,      [Mm]ucama,     [Mm]ucamas,      [Mm]ucamo,     [Mm]ucamos,69,0,0,0,0,yes,yes,yes,yes,"100,00%"
 [Hh]ousekeeper,[Hh]ousekeepers,      [Cc]asera,     [Cc]aseras,      [Cc]asero,     [Cc]aseros,31,21,0,0,0,yes,yes,yes,yes,"19,23%"
[Pp]sychologist,[Pp]sychologists,  [Pp]sicóloga, [Pp]sicólogas,  [Pp]sicólogo, [Pp]sicólogos,113,884,1,0,2,no,no,no,no,"-77,33%"
[Pp]sychologist,[Pp]sychologists,  [Ss]ocióloga, [Ss]ociólogas,  [Ss]ociólogo, [Ss]ociólogos,10,291,0,0,0,yes,yes,no,no,"-93,36%"
[Pp]sychologist,[Pp]sychologists, [Ee]xploradora,[Ee]xploradoras,  [Ee]xplorador,[Ee]xploradores,0,3,0,0,0,yes,yes,yes,yes,"-100,00%"
[Pp]sychologist,[Pp]sychologists,[Pp]sicopedagoga,[Pp]sicopedagogas,[Pp]sicopedagogo,[Pp]sicopedagogos,14,40,0,0,3,yes,yes,yes,yes,"-48,15%"
      [Jj]unior,     [Jj]uniors,  [Ss]ubalterna, [Ss]ubalternas,  [Ss]ubalterno, [Ss]ubalternos,47,947,0,0,6,no,no,no,no,"-90,54%"
      [Jj]unior,     [Jj]uniors,[Pp]reparatoriana,[Pp]reparatorianas,[Pp]reparatoriano,[Pp]reparatorianos,0,1,0,0,0,yes,yes,yes,yes,"-100,00%"
      [Jj]unior,     [Jj]uniors,    [Rr]ecadera,   [Rr]ecaderas,    [Rr]ecadero,   [Rr]ecaderos,0,1,0,0,0,yes,yes,yes,yes,"-100,00%"
      [Jj]unior,     [Jj]uniors,     [Ss]egunda,    [Ss]egundas,     [Ss]egundo,    [Ss]egundos,149,456,0,0,32,yes,no,no,no,"-50,74%"
      [Ss]inger,     [Ss]ingers,     [Cc]antora,    [Cc]antoras,      [Cc]antor,    [Cc]antores,23,953,0,11,13,no,no,no,no,"-95,29%"
      [Ss]inger,     [Ss]ingers,    [Cc]antaora,   [Cc]antaoras,     [Cc]antaor,   [Cc]antaores,143,563,0,6,81,yes,no,no,no,"-59,49%"
      [Ss]inger,     [Ss]ingers,     [Mm]úsica,    [Mm]úsicas,     [Mm]úsico,    [Mm]úsicos,502,372,2,0,126,no,no,no,no,"14,87%"
     [Oo]fficer,    [Oo]fficers,  [Dd]irectivas,  [Dd]irectivas,   [Dd]irectivo,  [Dd]irectivos,142,827,0,0,31,no,no,no,no,"-70,69%"
     [Oo]fficer,    [Oo]fficers,   [Dd]irectora,  [Dd]irectoras,    [Dd]irector,  [Dd]irectores,46,544,0,0,410,no,no,no,no,"-84,41%"
     [Oo]fficer,    [Oo]fficers, [Ff]uncionaria,[Ff]uncionarias, [Ff]uncionario,[Ff]uncionarios,17,905,0,0,78,no,no,no,no,"-96,31%"
     [Oo]fficer,    [Oo]fficers,   [Ee]jecutiva,  [Ee]jecutivas,   [Ee]jecutivo,  [Ee]jecutivos,186,698,0,0,116,no,no,no,no,"-57,92%"
     [Oo]fficer,    [Oo]fficers,    [Tt]écnica,   [Tt]écnicas,    [Tt]écnico,   [Tt]écnicos,469,443,0,0,88,no,no,no,no,"2,85%"
    [Mm]inister,   [Mm]inisters,    [Mm]inistra,   [Mm]inistras,    [Mm]inistro,   [Mm]inistros,68,922,0,2,8,no,no,no,no,"-86,26%"
    [Mm]inister,   [Mm]inisters,  [Ss]ecretaria, [Ss]ecretarias,  [Ss]ecretario, [Ss]ecretarios,68,820,0,0,112,no,no,no,no,"-84,68%"
    [Mm]inister,   [Mm]inisters,     [Pp]astora,    [Pp]astoras,      [Pp]astor,     [Pp]stores,27,715,0,0,258,no,no,no,no,"-92,72%"
    [Mm]inister,   [Mm]inisters,   [Cc]onsejera,  [Cc]onsejeras,   [Cc]onsejero,  [Cc]onsejeros,187,778,0,0,35,no,no,no,no,"-61,24%"
      [Ff]armer,     [Ff]armers, [Aa]gricultora,[Aa]gricultoras,  [Aa]gricultor, [Aa]ricultores,224,763,0,0,13,no,no,no,no,"-54,61%"
      [Ff]armer,     [Ff]armers,    [Gg]ranjera,   [Gg]ranjeras,    [Gg]ranjero,   [Gg]ranjeros,23,976,0,0,1,no,no,no,no,"-95,40%"
      [Ff]armer,     [Ff]armers,   [Cc]ampesina,  [Cc]ampesinas,   [Cc]ampesino,  [Cc]ampesinos,118,757,0,17,108,no,no,no,no,"-73,03%"
      [Ff]armer,     [Ff]armers,  [Pp]roductora, [Pp]roductoras,   [Pp]roductor, [Pp]roductores,29,923,1,3,44,no,no,no,no,"-93,91%"
      [Ff]armer,     [Ff]armers,    [Gg]anadera,   [Gg]anaderas,    [Gg]anadero,   [Gg]anaderos,43,935,0,0,22,no,no,no,no,"-91,21%"
      [Ff]armer,     [Ff]armers,   [Ll]abradora,  [Ll]abradoras,    [Ll]abrador,  [Ll]abradores,7,569,0,0,14,yes,no,no,no,"-97,57%"
      [Ff]armer,     [Ff]armers,    [Rr]anchera,   [Rr]ancheras,    [Rr]anchero,   [Rr]ancheros,0,89,0,0,2,yes,yes,yes,yes,"-100,00%"
      [Ff]armer,     [Ff]armers,  [Pp]ueblerina, [Pp]ueblerinas,  [Pp]ueblerino, [Pp]ueblerinos,0,4,0,0,0,yes,yes,yes,yes,"-100,00%"
      [Ff]armer,     [Ff]armers, [Cc]ultivadora,[Cc]ultivadoras,  [Cc]ultivador,[Cc]ultivadores,30,662,0,1,6,yes,no,no,no,"-91,33%"
      [Ff]armer,     [Ff]armers,   [Cc]hacarera,  [Cc]hacareras,   [Cc]hacarero,  [Cc]hacareros,6,18,0,0,0,yes,yes,yes,yes,"-50,00%"
      [Ff]armer,     [Ff]armers,  [Ee]stanciera, [Ee]stancieras,  [Ee]stanciero, [Ee]stancieros,0,30,0,0,0,yes,yes,yes,yes,"-100,00%"
      [Ff]armer,     [Ff]armers,   [Hh]acendada,  [Hh]acendadas,   [Hh]acendado,  [Hh]acendados,5,152,0,0,1,yes,yes,yes,no,"-93,63%"
      [Ff]armer,     [Ff]armers,    [Ff]inquera,   [Ff]inqueras,    [Ff]inquero,   [Ff]inqueros,13,257,0,4,2,yes,yes,yes,no,"-90,37%"
  [Tt]echnician, [Tt]echnicians,   [Tt]écnicas,   [Tt]écnicas,    [Tt]écnico,   [Tt]écnicos,6,927,0,0,67,no,no,no,no,"-98,71%"
  [Tt]echnician, [Tt]echnicians,   [Mm]ecánica,  [Mm]ecánicas,   [Mm]ecánico,  [Mm]ecánicos,76,369,0,0,27,yes,yes,no,no,"-65,84%"
  [Tt]echnician, [Tt]echnicians,  [Tt]ecnóloga, [Tt]ecnólogas,  [Tt]ecnólogo, [Tt]ecnólogos,2,117,0,0,11,yes,yes,yes,no,"-96,64%"
   [Ss]cientist,  [Ss]cientists, [Cc]ientífica,[Cc]ientíficas, [Cc]ientífico,[Cc]ientíficos,36,890,0,0,74,no,no,no,no,"-92,22%"
   [Ss]cientist,  [Ss]cientists,[Ii]nvestigadora,[Ii]nvestigadoras,[Ii]nvestigador,[Ii]nvestigadores,76,893,1,0,30,no,no,no,no,"-84,31%"
    [Aa]dvocate,   [Aa]dvocates,   [Dd]efensora,  [Dd]efensoras,    [Dd]efensor,  [Dd]efensores,133,843,8,3,13,no,no,no,no,"-72,75%"
    [Aa]dvocate,   [Aa]dvocates,     [Aa]bogada,    [Aa]bogadas,     [Aa]bogado,    [Aa]bogados,48,922,0,0,30,no,no,no,no,"-90,10%"
    [Aa]dvocate,   [Aa]dvocates,   [Pp]romotora,  [Pp]romotoras,    [Pp]romotor,  [Pp]romotores,153,839,0,2,6,no,no,no,no,"-69,15%"
    [Aa]dvocate,   [Aa]dvocates,  [Pp]artidaria, [Pp]artidarias,  [Pp]artidario, [Pp]artidarios,140,846,0,0,14,no,no,no,no,"-71,60%"
    [Aa]dvocate,   [Aa]dvocates, [Ii]ntercesora,[Ii]ntercesoras,  [Ii]ntercesor,[Ii]ntercesores,17,70,0,0,0,yes,yes,yes,yes,"-60,92%"
    [Aa]dvocate,   [Aa]dvocates,    [Pp]aladina,   [Pp]aladinas,    [Pp]aladín,   [Pp]aladines,0,37,0,0,1,yes,yes,yes,yes,"-100,00%"
    [Aa]dvocate,   [Aa]dvocates,  [Pp]rotectora, [Pp]rotectoras,   [Pp]rotector, [Pp]rotectores,20,42,0,0,12,yes,yes,yes,yes,"-35,48%"
    [Aa]dvocate,   [Aa]dvocates,     [Ll]etrada,    [Ll]etradas,     [Ll]etrado,    [Ll]etrados,75,135,0,0,14,yes,yes,yes,no,"-28,57%"
    [Aa]dvocate,   [Aa]dvocates,    [Vv]aledora,   [Vv]aledoras,     [Vv]aledor,   [Vv]aledores,1,6,0,0,1,yes,yes,yes,yes,"-71,43%"
    [Aa]dvocate,   [Aa]dvocates, [Ss]ostenedora,[Ss]ostenedoras,  [Ss]ostenedor,[Ss]ostenedores,1,7,0,0,0,yes,yes,yes,yes,"-75,00%"
[Ii]nvestigator,[Ii]nvestigators,[Ii]nvestigadora,[Ii]nvestigadoras,[Ii]nvestigador,[Ii]nvestigadores,32,955,0,0,13,no,no,no,no,"-93,52%"
[Ii]nvestigator,[Ii]nvestigators,  [Ii]nspectora, [Ii]nspectoras,   [Ii]nspector, [Ii]nspectores,5,235,0,0,64,yes,yes,no,no,"-95,83%"
[Ii]nvestigator,[Ii]nvestigators, [Ii]nstructora,[Ii]nstructoras,  [Ii]nstructor,[Ii]nstructores,11,644,0,0,15,yes,no,no,no,"-96,64%"
   [Ll]ibrarian,  [Ll]ibrarians,[Bb]ibliotecaria,[Bb]ibliotecarias,[Bb]ibliotecario,[Bb]ibliotecarios,175,804,0,0,21,no,no,no,no,"-64,25%"
   [Ll]ibrarian,  [Ll]ibrarians,[Bb]ibliotecóloga,[Bb]ibliotecólogas,[Bb]ibliotecólogo,[Bb]ibliotecólogos,1,10,0,0,0,yes,yes,yes,yes,"-81,82%"
   [Ll]ibrarian,  [Ll]ibrarians, [Ff]uncionaria,[Ff]uncionarias, [Ff]uncionario,[Ff]uncionarios,2,65,0,0,8,yes,yes,yes,yes,"-94,03%"
   [Ll]ibrarian,  [Ll]ibrarians,     [Ll]ibrera,    [Ll]ibreras,     [Ll]ibrero,    [Ll]ibreros,7,46,0,0,0,yes,yes,yes,yes,"-73,58%"
 [Hh]airdresser,[Hh]airdressers,   [Pp]eluquera,  [Pp]eluqueras,   [Pp]eluquero,  [Pp]eluqueros,285,692,1,2,20,no,no,no,no,"-41,66%"
      [Dd]eputy,    [Dd]eputies,   [Ss]ustituta,  [Ss]ustitutas,   [Ss]ustituto,  [Ss]ustitutos,15,305,0,0,2,yes,yes,no,no,"-90,63%"
      [Dd]eputy,    [Dd]eputies,    [Dd]iputada,   [Dd]iputadas,    [Dd]iputado,   [Dd]iputados,68,903,0,4,25,no,no,no,no,"-85,99%"
      [Dd]eputy,    [Dd]eputies,     [Aa]djunta,    [Aa]djuntas,     [Aa]djunto,    [Aa]djuntos,144,833,0,0,23,no,no,no,no,"-70,52%"
      [Dd]eputy,    [Dd]eputies,     [Ss]egunda,    [Ss]egundas,     [Ss]egundo,    [Ss]egundos,347,634,0,0,19,no,no,no,no,"-29,26%"
      [Dd]eputy,    [Dd]eputies,    [Dd]elegada,   [Dd]elegadas,    [Dd]elegado,   [Dd]elegados,123,811,0,0,66,no,no,no,no,"-73,66%"
      [Dd]eputy,    [Dd]eputies,   [Aa]poderada,  [Aa]poderadas,   [Aa]poderado,  [Aa]poderados,0,16,0,0,0,yes,yes,yes,yes,"-100,00%"
      [Dd]eputy,    [Dd]eputies,   [Cc]omisaria,  [Cc]omisarias,   [Cc]omisario,  [Cc]omisarios,52,567,0,0,45,yes,no,no,no,"-83,20%"
    [Ss]hepherd,   [Ss]hepherds,     [Pp]astora,    [Pp]astoras,      [Pp]astor,    [Pp]astores,4,968,0,0,28,no,no,no,no,"-99,18%"
    [Ss]hepherd,   [Ss]hepherds,     [Oo]vejera,    [Oo]vejeras,     [Oo]vejero,    [Oo]vejeros,4,67,0,0,4,yes,yes,yes,yes,"-88,73%"
    [Ss]hepherd,   [Ss]hepherds, [Pp]astorcilla,[Pp]astorcillas, [Pp]astorcillo,[Pp]astorcillos,9,132,0,0,1,yes,yes,yes,no,"-87,23%"
  [Ss]eamstress,[Ss]eamstresses,     [Mm]odista,    [Mm]odistas,     [Mm]odisto,    [Mm]odistos,105,4,1,11,0,yes,yes,yes,no,"92,66%"
  [Ss]eamstress,[Ss]eamstresses,   [Cc]osturera,  [Cc]ostureras,   [Cc]osturero,  [Cc]ostureros,696,14,0,12,6,yes,no,no,no,"96,06%"
  [Ss]eamstress,[Ss]eamstresses,      [Ss]astra,     [Ss]astras,      [Ss]astre,     [Ss]astres,1,51,0,0,2,yes,yes,yes,yes,"-96,15%"
  [Ss]eamstress,[Ss]eamstresses,   [Hh]ilandera,  [Hh]ilanderas,   [Hh]ilandero,  [HH]ilanderos,1,0,0,0,0,yes,yes,yes,yes,"100,00%"
     [Aa]nalyst,    [Aa]nalysts,  [Pp]sicóloga, [Pp]sicólogas,  [Pp]sicólogo, [Pp]sicólogos,19,73,0,0,1,yes,yes,yes,yes,"-58,70%"
[Aa]dministrative,[Aa]dministratives,[Aa]dministrativa,[Aa]dministrativas,[Aa]dministrativo,[Aa]dministrativos,444,550,0,0,6,no,no,no,no,"-10,66%"
  [Pp]rosecutor, [Pp]rosecutors, [Pp]rocuradora,[Pp]rocuradoras,  [Pp]rocurador,[Pp]rocuradores,43,916,1,0,40,no,no,no,no,"-91,03%"
  [Pp]rosecutor, [Pp]rosecutors,     [Aa]bogada,    [Aa]bogadas,     [Aa]bogado,    [Aa]bogados,18,894,0,2,86,no,no,no,no,"-96,05%"
  [Pp]rosecutor, [Pp]rosecutors,   [Aa]cusadora,  [Aa]cusadoras,    [Aa]cusador,  [Aa]cusadores,56,267,0,0,8,yes,yes,no,no,"-65,33%"
     [Cc]hemist,    [Cc]hemists,    [Qq]uímica,   [Qq]uímicas,    [Qq]uímico,   [Qq]uímicos,91,797,0,0,112,no,no,no,no,"-79,50%"
     [Cc]hemist,    [Cc]hemists,[Ff]armacéutica,[Ff]armacéuticas,[Ff]armacéutico,[Ff]armacéuticos,58,357,0,0,18,yes,yes,no,no,"-72,05%"
     [Cc]hemist,    [Cc]hemists,   [Bb]oticaria,  [Bb]oticarias,   [Bb]oticario,  [Bb]oticarios,0,40,0,0,0,yes,yes,yes,yes,"-100,00%"
     [Cc]hemist,    [Cc]hemists,     [Ff]ísica,    [Ff]ísicas,     [Ff]ísico,    [Ff]ísicos,40,249,0,0,24,yes,yes,no,no,"-72,32%"
     [Cc]hemist,    [Cc]hemists,  [Qq]uimiquera, [Qq]uimiqueras,  [Qq]uimiquero, [Qq]uimiqueros,0,1,0,0,0,yes,yes,yes,yes,"-100,00%"
   [Cc]ameraman,   [Cc]ameramen,   [Oo]peradora,  [Oo]peradoras,    [Oo]perador,  [Oo]peradores,4,184,0,0,6,yes,yes,yes,no,"-95,74%"
   [Cc]ameraman,   [Cc]ameramen,[Cc]amarógrafa,[Cc]amarógrafas,[Cc]amarógrafo,[Cc]amarógrafos,6,988,0,0,6,no,no,no,no,"-98,79%"
     [Ss]urgeon,    [Ss]urgeons,    [Cc]irujana,   [Cc]irujanas,    [Cc]irujano,   [Cc]irujanos,32,959,0,0,9,no,no,no,no,"-93,54%"
     [Ss]urgeon,    [Ss]urgeons,     [Mm]édica,    [Mm]édicas,     [Mm]édico,    [Mm]édicos,92,698,0,0,210,no,no,no,no,"-76,71%"
     [Ss]urgeon,    [Ss]urgeons,   [Oo]peradora,  [Oo]peradoras,    [Oo]perador,  [Oo]peradores,0,23,0,0,0,yes,yes,yes,yes,"-100,00%"
  [Ss]ubstitute, [Ss]ubstitutes,   [Ss]ustituta,  [Ss]ustitutas,   [Ss]ustituto,  [Ss]ustitutos,27,970,0,0,3,no,no,no,no,"-94,58%"
  [Ss]ubstitute, [Ss]ubstitutes,  [Ss]ucedánea, [Ss]ucedáneas,  [Ss]ucedáneo, [Ss]ucedáneos,16,980,0,0,4,no,no,no,no,"-96,79%"
    [Ss]alesman,   [Ss]alesmans,   [Vv]endedora,  [Vv]endedoras,    [Vv]endedor,  [Vv]endedores,10,978,0,1,11,no,no,no,no,"-97,98%"
    [Ss]alesman,   [Ss]alesmans, [Dd]ependienta,[Dd]ependientas, [Dd]ependiente,[Dd]ependientes,1,32,0,0,0,yes,yes,yes,yes,"-93,94%"
    [Ss]alesman,   [Ss]alesmans,    [Mm]arinera,   [Mm]arineras,    [Mm]arinero,   [Mm]arineros,0,3,0,0,0,yes,yes,yes,yes,"-100,00%"
    [Ss]alesman,   [Ss]alesmans,   [Cc]orredora,  [Cc]orredoras,    [Cc]orredor,  [Cc]orredores,0,11,0,0,1,yes,yes,yes,yes,"-100,00%"
  [Cc]ontractor, [Cc]ontractors,  [Pp]roveedora, [Pp]roveedoras,   [Pp]roveedor, [Pp]roveedores,0,955,0,0,45,no,no,no,no,"-100,00%"
  [Cc]ontractor, [Cc]ontractors,  [Ee]mpresaria, [Ee]mpresarias,  [Ee]mpresario, [Ee]mpresarios,4,336,0,0,15,yes,yes,no,no,"-97,65%"
  [Cc]ontractor, [Cc]ontractors,[Aa]djudicataria,[Aa]djudicatarias,[Aa]djudicatario,[Aa]djudicatarios,18,125,0,0,5,yes,yes,yes,no,"-74,83%"
  [Cc]ontractor, [Cc]ontractors,       [Ss]ocia,      [Ss]ocias,       [Ss]ocio,      [Ss]ocios,25,321,0,0,26,yes,yes,no,no,"-85,55%"
  [Cc]ontractor, [Cc]ontractors,[Oo]rganizadora,[Oo]rganizadoras, [Oo]rganizador,[Oo]rganizadores,1,19,0,0,3,yes,yes,yes,yes,"-90,00%"
     [Pp]artner,    [Pp]artners,       [Ss]ocia,      [Ss]ocias,       [Ss]ocio,      [Ss]ocios,27,969,0,0,4,no,no,no,no,"-94,58%"
     [Pp]artner,    [Pp]artners,  [Cc]ompañera, [Cc]ompañeras,  [Cc]ompañero, [Cc]ompañeros,188,798,1,3,10,no,no,no,no,"-61,87%"
     [Pp]artner,    [Pp]artners,    [Aa]sociada,   [Aa]sociadas,    [Aa]sociado,   [Aa]sociados,84,910,0,0,6,no,no,no,no,"-83,10%"
     [Pp]artner,    [Pp]artners,     [Mm]iembra,    [Mm]iembras,     [Mm]iembro,    [Mm]iembros,0,927,0,0,73,no,no,no,no,"-100,00%"
     [Pp]artner,    [Pp]artners,      [Aa]liada,     [Aa]liadas,      [Aa]liado,     [Aa]liados,92,905,0,0,3,no,no,no,no,"-81,54%"
     [Pp]artner,    [Pp]artners,[Cc]olaboradora,[Cc]olaboradoras, [Cc]olaborador,[Cc]olaboradores,75,924,0,0,1,no,no,no,no,"-84,98%"
     [Pp]artner,    [Pp]artners,      [Ee]sposa,     [Ee]sposas,      [Ee]sposo,     [Ee]sposos,479,397,7,17,100,no,no,no,no,"9,36%"
    [Dd]iplomat,   [Dd]iplomats,[Dd]iplomática,[Dd]iplomáticas,[Dd]iplomático,[Dd]iplomáticos,49,891,0,0,60,no,no,no,no,"-89,57%"
    [Dd]iplomat,   [Dd]iplomats, [Ff]uncionaria,[Ff]uncionarias, [Ff]uncionario,[Ff]uncionarios,21,877,0,1,101,no,no,no,no,"-95,32%"
   [Cc]ounselor,  [Cc]ounselors,   [Cc]onsejera,  [Cc]onsejeras,   [Cc]onsejero,  [Cc]onsejeros,84,912,1,0,3,no,no,no,no,"-83,13%"
   [Cc]ounselor,  [Cc]ounselors,     [Aa]sesora,    [Aa]sesoras,      [Aa]sesor,    [Aa]sesores,69,920,0,0,11,no,no,no,no,"-86,05%"
   [Cc]ounselor,  [Cc]ounselors,     [Aa]bogada,    [Aa]bogadas,     [Aa]bogado,    [Aa]bogados,139,834,0,0,27,no,no,no,no,"-71,43%"
   [Cc]ounselor,  [Cc]ounselors, [Oo]rientadora,[Oo]rientadoras,  [Oo]rientador,[Oo]rientadores,84,339,0,0,3,yes,yes,no,no,"-60,28%"
   [Cc]ounselor,  [Cc]ounselors,  [Mm]agistrada, [Mm]agistradas,  [Mm]agistrado, [Mm]agistrados,2,45,0,0,0,yes,yes,yes,yes,"-91,49%"
   [Cc]ounselor,  [Cc]ounselors,  [Pp]sicóloga, [Pp]sicólogas,  [Pp]sicólogo, [Pp]sicólogos,11,260,0,0,4,yes,yes,yes,no,"-91,88%"
   [Cc]ounselor,  [Cc]ounselors, [Ss]upervisora,[Ss]upervisoras,  [Ss]upervisor,[Ss]upervisores,6,30,0,0,11,yes,yes,yes,yes,"-66,67%"
   [Cc]ounselor,  [Cc]ounselors,    [Mm]onitora,   [Mm]onitoras,     [Mm]onitor,   [Mm]onitores,7,64,0,0,2,yes,yes,yes,yes,"-80,28%"
   [Cc]ounselor,  [Cc]ounselors,  [Cc]onsultora, [Cc]onsultoras,   [Cc]onsultor, [Cc]onsultores,6,101,0,0,2,yes,yes,yes,no,"-88,79%"
      [Tt]ypist,     [Tt]ypists,[Mm]ecanógrafa,[Mm]ecanógrafas,[Mm]ecanógrafo,[Mm]ecanógrafos,152,333,0,0,0,yes,yes,no,no,"-37,32%"
      [Tt]ypist,     [Tt]ypists,[Dd]actilógrafa,[Dd]actilógrafas,[Dd]actilógrafo,[Dd]actilógrafos,24,15,0,0,0,yes,yes,yes,yes,"23,08%"
      [Tt]ypist,     [Tt]ypists,[Tt]ranscriptora,[Tt]ranscriptoras,[Tt]ranscriptor,[Tt]ranscriptores,2,8,0,0,0,yes,yes,yes,yes,"-60,00%"
      [Tt]ypist,     [Tt]ypists,   [Tt]ipeadora,  [Tt]ipeadoras,    [Tt]ipeador,  [Tt]ipeadores,3,3,0,0,0,yes,yes,yes,yes,"0,00%"
      [Tt]ailor,     [Tt]ailors,      [Ss]astra,     [Ss]astras,      [Ss]astre,      [Ss]astre,4,987,0,0,9,no,no,no,no,"-99,19%"
      [Tt]ailor,     [Tt]ailors,   [Cc]osturera,  [Cc]ostureras,   [Cc]osturero,  [Cc]ostureros,56,23,0,13,1,yes,yes,yes,yes,"41,77%"
   [Pp]rincipal,  [Pp]rincipals,   [Dd]irectora,  [Dd]irectoras,    [Dd]irector,  [Dd]irectores,119,580,0,3,298,no,no,no,no,"-65,95%"
   [Pp]rincipal,  [Pp]rincipals,        [Jj]efa,       [Jj]efas,        [Jj]efe,       [Jj]efes,22,885,0,1,92,no,no,no,no,"-95,15%"
   [Pp]rincipal,  [Pp]rincipals,     [Rr]ectora,    [Rr]ectoras,      [Rr]ector,    [Rr]ectores,99,691,0,1,76,yes,no,no,no,"-74,94%"
   [Pp]rincipal,  [Pp]rincipals,      [Aa]utora,     [Aa]utoras,       [Aa]utor,     [Aa]utores,101,787,1,0,111,no,no,no,no,"-77,25%"
   [Pp]hysicist,  [Pp]hysicists,     [Ff]ísica,    [Ff]ísicas,     [Ff]ísico,    [Ff]ísicos,40,902,1,0,57,no,no,no,no,"-91,51%"
   [Pp]hysicist,  [Pp]hysicists, [Cc]ientífica,[Cc]ientíficas, [Cc]ientífico,[Cc]ientíficos,116,372,0,0,49,yes,no,no,no,"-52,46%"
   [Pp]hysicist,  [Pp]hysicists,     [Mm]édica,    [Mm]édicas,     [Mm]édico,    [Mm]édicos,13,214,0,0,30,yes,yes,yes,no,"-88,55%"
    [Mm]usician,   [Mm]usicians,     [Mm]úsica,    [Mm]úsicas,     [Mm]úsico,    [Mm]úsicos,38,822,0,0,140,no,no,no,no,"-91,16%"
       [Mm]ason,      [Mm]asons,     [Cc]antera,    [Cc]anteras,     [Cc]antero,    [Cc]anteros,5,289,0,0,6,yes,yes,no,no,"-96,60%"
       [Mm]ason,      [Mm]asons,       [Pp]eona,      [Pp]eonas,       [Pp]eón,      [Pp]eones,0,9,0,0,0,yes,yes,yes,yes,"-100,00%"
       [Mm]ason,      [Mm]asons,  [Mm]ampostera, [Mm]amposteras,  [Mm]ampostero, [Mm]amposteros,0,15,0,0,0,yes,yes,yes,yes,"-100,00%"
       [Mm]ason,      [Mm]asons,      [Mm]asona,     [Mm]asonas,      [Mm]asón,     [Mm]asones,8,964,0,0,28,no,no,no,no,"-98,35%"
   [Ff]isherman,  [Ff]ishermans,   [Pp]escadora,  [Pp]escadoras,    [Pp]escador,  [Pp]escadores,1,941,0,0,58,no,no,no,no,"-99,79%"
[Cc]horeographer,[Cc]horeographers, [Cc]oreógrafa,[Cc]oreógrafas, [Cc]oreógrafo,[Cc]oreógrafos,270,726,0,0,4,no,no,no,no,"-45,78%"
[Cc]horeographer,[Cc]horeographers,    [Cc]readora,   [Cc]readoras,     [Cc]reador,   [Cc]readores,12,39,0,0,1,yes,yes,yes,yes,"-52,94%"
[Cc]horeographer,[Cc]horeographers,   [Bb]ailarina,  [Bb]ailarinas,   [Bb]ailarín,  [Bb]ailarines,187,423,0,1,59,yes,no,no,no,"-38,69%"
[Aa]dministrator,[Aa]dministrators,[Aa]dministradora,[Aa]dministradoras,[Aa]dministrador,[Aa]dministradores,38,954,0,1,7,no,no,no,no,"-92,34%"
[Aa]dministrator,[Aa]dministrators,   [Dd]irectora,  [Dd]irectoras,    [Dd]irector,  [Dd]irectores,25,266,0,0,709,no,no,no,no,"-82,82%"
[Aa]dministrator,[Aa]dministrators,     [Gg]estora,    [Gg]estoras,      [Gg]estor,    [Gg]estores,22,373,0,0,8,yes,yes,no,no,"-88,86%"
[Aa]dministrator,[Aa]dministrators,   [Ee]ncargada,  [Ee]ncargadas,   [Ee]ncargado,  [Ee]ncargados,149,780,0,0,28,yes,no,no,no,"-67,92%"
[Aa]dministrator,[Aa]dministrators,[Ii]nterventora,[Ii]nterventoras, [Ii]nterventor,[Ii]nterventores,2,61,0,0,1,yes,yes,yes,yes,"-93,65%"
[Aa]dministrator,[Aa]dministrators,[Aa]dministrativa,[Aa]dministrativas,[Aa]dministrativo,[Aa]dministrativos,313,615,0,0,72,no,no,no,no,"-32,54%"
      [Ww]orker,     [Ww]orkers, [Tt]rabajadora,[Tt]rabajadoras,  [Tt]rabajador,[Tt]rabajadores,70,904,1,4,21,no,no,no,no,"-85,63%"
      [Ww]orker,     [Ww]orkers,    [Ee]mpleada,   [Ee]mpleadas,    [Ee]mpleado,   [Ee]mpleados,139,810,0,1,50,no,no,no,no,"-70,71%"
      [Ww]orker,     [Ww]orkers,      [Oo]brera,     [Oo]breras,      [Oo]brero,     [Oo]breros,176,781,0,1,42,no,no,no,no,"-63,22%"
     [Tt]rainee,    [Tt]rainees,     [Bb]ecaria,    [Bb]ecarias,     [Bb]ecario,    [Bb]ecarios,18,426,0,0,10,yes,yes,no,no,"-91,89%"
     [Tt]rainee,    [Tt]rainees,   [Aa]prendiza,  [Aa]prendizas,    [Aa]prendiz,  [Aa]prendices,10,980,0,0,10,no,no,no,no,"-97,98%"
     [Tt]rainee,    [Tt]rainees,      [Aa]lumna,     [Aa]lumnas,      [Aa]lumno,     [Aa]lumnos,25,948,0,0,27,no,no,no,no,"-94,86%"
    [Ss]culptor,   [Ss]culptors,   [Ee]scultora,  [Ee]scultoras,    [Ee]scultor,  [Ee]scultores,45,953,0,0,2,no,no,no,no,"-90,98%"
     [Pp]lumber,    [Pp]lumbers,     [Pp]lomera,    [Pp]lomeras,     [Pp]lomero,    [Pp]lomeros,9,946,0,0,2,yes,no,no,no,"-98,12%"
     [Pp]lumber,    [Pp]lumbers,   [Ff]ontanera,  [Ff]ontaneras,   [Ff]ontanero,  [Ff]ontaneros,14,984,0,0,2,no,no,no,no,"-97,19%"
     [Pp]lumber,    [Pp]lumbers,   [Gg]asfitera,  [Gg]asfiteras,   [Gg]asfitero,  [Gg]asfiteros,1,14,0,0,0,yes,yes,yes,yes,"-86,67%"
     [Pp]ioneer,    [Pp]ioneers,     [Pp]ionera,    [Pp]ioneras,     [Pp]ionero,    [Pp]ioneros,251,744,0,1,4,no,no,no,no,"-49,55%"
     [Pp]ioneer,    [Pp]ioneers,  [Pp]recursora, [Pp]recursoras,   [Pp]recursor, [Pp]recursores,207,777,0,2,14,no,no,no,no,"-57,93%"
     [Pp]ioneer,    [Pp]ioneers,[Cc]olonizadora,[Cc]olonizadoras, [Cc]olonizador,[Cc]olonizadores,9,36,0,0,0,yes,yes,yes,yes,"-60,00%"
     [Pp]ioneer,    [Pp]ioneers, [Ee]xploradora,[Ee]xploradoras,  [Ee]xplorador,[Ee]xploradores,2,66,0,0,4,yes,yes,yes,yes,"-94,12%"
     [Pp]ioneer,    [Pp]ioneers,    [Zz]apadora,   [Zz]apadoras,     [Zz]apador,   [Zz]apadores,0,6,0,0,0,yes,yes,yes,yes,"-100,00%"
[Mm]athematician,[Mm]athematicians, [Mm]atemática,[Mm]atemáticas, [Mm]atemático,[Mm]atemáticos,27,821,1,1,150,no,no,no,no,"-93,63%"
    [Ee]ducator,   [Ee]ducators,   [Ee]ducadora,  [Ee]ducadoras,    [Ee]ducador,  [Ee]ducadores,83,907,0,2,8,no,no,no,no,"-83,23%"
    [Ee]ducator,   [Ee]ducators,    [Pp]edagoga,   [Pp]edagogas,    [Pp]edagogo,   [Pp]edagogos,33,275,0,0,2,yes,yes,no,no,"-78,57%"
    [Ee]ducator,   [Ee]ducators,   [Ff]ormadora,  [Ff]ormadoras,    [Ff]ormador,  [Ff]ormadores,25,293,2,2,6,yes,yes,no,no,"-84,28%"
    [Ee]ducator,   [Ee]ducators,     [Mm]aestra,    [Mm]aestras,     [Mm]aestro,    [Mm]aestros,42,867,1,8,82,no,no,no,no,"-90,76%"
,,,,,,,,,,No,192,222,249,289,
,,,,,,,,,,Yes,158,128,101,61,
